[debug] [2020-04-27T02:43:53.005Z] ----------------------------------------------------------------------
[debug] [2020-04-27T02:43:53.007Z] Command:       /home/lazycipher/.nvm/versions/node/v10.15.3/bin/node /home/lazycipher/.nvm/versions/node/v10.15.3/bin/firebase deploy --only hosting
[debug] [2020-04-27T02:43:53.007Z] CLI Version:   8.1.1
[debug] [2020-04-27T02:43:53.007Z] Platform:      linux
[debug] [2020-04-27T02:43:53.007Z] Node Version:  v10.15.3
[debug] [2020-04-27T02:43:53.008Z] Time:          Mon Apr 27 2020 08:13:53 GMT+0530 (India Standard Time)
[debug] [2020-04-27T02:43:53.008Z] ----------------------------------------------------------------------
[debug] [2020-04-27T02:43:53.008Z] 
[debug] [2020-04-27T02:43:53.014Z] > command requires scopes: ["email","openid","https://www.googleapis.com/auth/cloudplatformprojects.readonly","https://www.googleapis.com/auth/firebase","https://www.googleapis.com/auth/cloud-platform"]
[debug] [2020-04-27T02:43:53.015Z] > authorizing via signed-in user
[debug] [2020-04-27T02:43:53.015Z] [iam] checking project eventbase-webtech for permissions ["firebase.projects.get","firebasehosting.sites.update"]
[debug] [2020-04-27T02:43:53.017Z] >>> HTTP REQUEST POST https://cloudresourcemanager.googleapis.com/v1/projects/eventbase-webtech:testIamPermissions  
 {"permissions":["firebase.projects.get","firebasehosting.sites.update"]}
[debug] [2020-04-27T02:43:55.132Z] <<< HTTP RESPONSE 200 {"content-type":"application/json; charset=UTF-8","vary":"X-Origin, Referer, Origin,Accept-Encoding","date":"Mon, 27 Apr 2020 02:43:54 GMT","server":"ESF","cache-control":"private","x-xss-protection":"0","x-frame-options":"SAMEORIGIN","x-content-type-options":"nosniff","server-timing":"gfet4t7; dur=1628","alt-svc":"quic=\":443\"; ma=2592000; v=\"46,43\",h3-Q050=\":443\"; ma=2592000,h3-Q049=\":443\"; ma=2592000,h3-Q048=\":443\"; ma=2592000,h3-Q046=\":443\"; ma=2592000,h3-Q043=\":443\"; ma=2592000,h3-T050=\":443\"; ma=2592000","accept-ranges":"none","transfer-encoding":"chunked"}
[debug] [2020-04-27T02:43:55.137Z] >>> HTTP REQUEST GET https://firebase.googleapis.com/v1beta1/projects/eventbase-webtech  
 
[debug] [2020-04-27T02:43:55.790Z] <<< HTTP RESPONSE 200 {"content-type":"application/json; charset=UTF-8","vary":"X-Origin, Referer, Origin,Accept-Encoding","date":"Mon, 27 Apr 2020 02:43:55 GMT","server":"ESF","cache-control":"private","x-xss-protection":"0","x-frame-options":"SAMEORIGIN","x-content-type-options":"nosniff","alt-svc":"quic=\":443\"; ma=2592000; v=\"46,43\",h3-Q050=\":443\"; ma=2592000,h3-Q049=\":443\"; ma=2592000,h3-Q048=\":443\"; ma=2592000,h3-Q046=\":443\"; ma=2592000,h3-Q043=\":443\"; ma=2592000,h3-T050=\":443\"; ma=2592000","accept-ranges":"none","transfer-encoding":"chunked"}
[warn] ⚠  functions: package.json indicates an outdated version of firebase-functions.
Please upgrade using npm install --save firebase-functions@latest in your functions directory.
[info] 
[info] === Deploying to 'eventbase-webtech'...
[info] 
[info] i  deploying hosting
[debug] [2020-04-27T02:43:57.504Z] >>> HTTP REQUEST POST https://firebasehosting.googleapis.com/v1beta1/sites/eventbase-webtech/versions  
 {"config":{"rewrites":[{"glob":"**","path":"/index.html"}]},"labels":{"deployment-tool":"cli-firebase"}}
[debug] [2020-04-27T02:43:59.990Z] <<< HTTP RESPONSE 200 {"content-type":"application/json; charset=UTF-8","vary":"X-Origin, Referer, Origin,Accept-Encoding","date":"Mon, 27 Apr 2020 02:43:59 GMT","server":"ESF","cache-control":"private","x-xss-protection":"0","x-frame-options":"SAMEORIGIN","x-content-type-options":"nosniff","alt-svc":"quic=\":443\"; ma=2592000; v=\"46,43\",h3-Q050=\":443\"; ma=2592000,h3-Q049=\":443\"; ma=2592000,h3-Q048=\":443\"; ma=2592000,h3-Q046=\":443\"; ma=2592000,h3-Q043=\":443\"; ma=2592000,h3-T050=\":443\"; ma=2592000","accept-ranges":"none","transfer-encoding":"chunked"}
[info] i  hosting[eventbase-webtech]: beginning deploy...
[info] i  hosting[eventbase-webtech]: found 16 files in build
[debug] [2020-04-27T02:44:01.567Z] [hosting] hash cache [YnVpbGQ] stored for 16 files
[debug] [2020-04-27T02:44:01.567Z] [hosting][hash queue][FINAL] {"max":1526,"min":15,"avg":116.375,"active":0,"complete":16,"success":16,"errored":0,"retried":0,"total":16,"elapsed":1537}
[debug] [2020-04-27T02:44:01.567Z] >>> HTTP REQUEST POST https://firebasehosting.googleapis.com/v1beta1/sites/eventbase-webtech/versions/0c7c5ecef0fcde41:populateFiles  
 <request body omitted>
[debug] [2020-04-27T02:44:03.649Z] <<< HTTP RESPONSE 200 {"content-type":"application/json; charset=UTF-8","vary":"X-Origin, Referer, Origin,Accept-Encoding","date":"Mon, 27 Apr 2020 02:44:03 GMT","server":"ESF","cache-control":"private","x-xss-protection":"0","x-frame-options":"SAMEORIGIN","x-content-type-options":"nosniff","alt-svc":"quic=\":443\"; ma=2592000; v=\"46,43\",h3-Q050=\":443\"; ma=2592000,h3-Q049=\":443\"; ma=2592000,h3-Q048=\":443\"; ma=2592000,h3-Q046=\":443\"; ma=2592000,h3-Q043=\":443\"; ma=2592000,h3-T050=\":443\"; ma=2592000","accept-ranges":"none","transfer-encoding":"chunked"}
[debug] [2020-04-27T02:44:03.660Z] [hosting][populate queue][FINAL] {"max":2086,"min":2086,"avg":2086,"active":0,"complete":1,"success":1,"errored":0,"retried":0,"total":1,"elapsed":2094}
[debug] [2020-04-27T02:44:03.660Z] [hosting] uploads queued: 4
